<?xml version="1.0" encoding="UTF-8" standalone="no"?>
<svg width="20px" height="25px" viewBox="0 0 20 25" version="1.1" xmlns="http://www.w3.org/2000/svg" xmlns:xlink="http://www.w3.org/1999/xlink">
    <!-- Generator: sketchtool 39 (31667) - http://www.bohemiancoding.com/sketch -->
    <title>3A85B009-1506-46BF-8A19-777B87BEEADC</title>
    <desc>Created with sketchtool.</desc>
    <defs></defs>
    <g id="Page-1" stroke="none" stroke-width="1" fill="none" fill-rule="evenodd">
        <g id="Details" transform="translate(-1479.000000, -674.000000)" fill="#BCC3C8">
            <g id="Group-12" transform="translate(1233.000000, 674.000000)">
                <g id="pl-icon-pinterest" transform="translate(246.000000, 0.000000)">
                    <g id="pinterest">
                        <path d="M16.9668,2.6379 C15.2594,0.9988 12.8965,0.0961 10.3137,0.0961 C6.368,0.0961 3.9414,1.7133 2.6004,3.0703 C0.9477,4.7422 0,6.9621 0,9.1613 C0,11.9223 1.1547,14.0414 3.0891,14.8301 C3.2188,14.8832 3.3492,14.9098 3.4773,14.9098 C3.8855,14.9098 4.2086,14.643 4.3207,14.2148 C4.3859,13.9691 4.5371,13.3629 4.6031,13.1 C4.7438,12.5801 4.6301,12.3305 4.323,11.9684 C3.7637,11.3066 3.5031,10.5238 3.5031,9.5055 C3.5031,6.4801 5.7559,3.2644 9.9312,3.2644 C13.2441,3.2644 15.3023,5.1477 15.3023,8.1785 C15.3023,10.0914 14.8902,11.8625 14.1422,13.1664 C13.6219,14.0727 12.7074,15.1527 11.3039,15.1527 C10.6969,15.1527 10.1516,14.9031 9.8074,14.4684 C9.4824,14.0574 9.3754,13.5266 9.5059,12.9734 C9.6535,12.3484 9.8551,11.6961 10.05,11.0656 C10.4055,9.9144 10.7414,8.8269 10.7414,7.9594 C10.7414,6.4754 9.8289,5.4781 8.4715,5.4781 C6.7461,5.4781 5.3941,7.2309 5.3941,9.468 C5.3941,10.5652 5.6859,11.3859 5.8176,11.7008 C5.6004,12.6219 4.3086,18.0973 4.0637,19.1297 C3.9219,19.7324 3.0684,24.4926 4.4809,24.8723 C6.0684,25.2988 7.4871,20.6625 7.6316,20.1387 C7.7484,19.7125 8.1582,18.1016 8.409,17.1109 C9.1754,17.8492 10.409,18.348 11.6094,18.348 C13.8727,18.348 15.9078,17.3297 17.3406,15.4805 C18.7297,13.6871 19.4949,11.1875 19.4949,8.4422 C19.4949,6.2961 18.5734,4.1805 16.9668,2.6379 L16.9668,2.6379 Z" id="Fill-1"></path>
                    </g>
                </g>
            </g>
        </g>
    </g>
</svg>